Simple demo
…
  dropping 1 duplicate cols: ID

final join stats:

  rows: 144

  cols: 22

Code

join_df %>% 
  select(NUM, ID, TIME, CONC, IPRED, PRED)

# A tibble: 144 x 6
     NUM    ID  TIME  CONC IPRED  PRED
   <dbl> <dbl> <dbl> <dbl> <dbl> <dbl>
 1     1     1  0     0     0     0   
 2     2     1  0     0     0     0   
 3     3     1  0.27  1.29  1.84  3.25
 4     4     1  0.58  3.08  3.40  5.60
 5     5     1  1.15  6.44  5.16  7.68
 6     6     1  2.03  6.32  6.25  8.38
 7     7     1  3.57  5.53  6.21  7.73
 8     8     1  5     4.94  5.55  6.87
 9     9     1  7     4.02  4.56  5.78
10    10     1  9.22  3.46  3.63  4.76
# i 134 more rows
…
